…
Sys.time() - a
#> Time difference of 7.228843 secs
```

Loading a single game should take \~ 5 seconds. Once it does, it’s time
to have some fun. The `load_pbp` function returns 34 columns, some with
“boring” data, like who the teams are, etc. But then you get to the
columns that look at how much time is remaing in a quarter, what the
home skater vs away skater numbers are, what event occured, who was
involved, and so on.

``` r
pbp
#> # A tibble: 204 x 36
#>    game_id home_team  away_team period_id event_no description    time_remaining
#>      <dbl> <chr>      <chr>         <dbl>    <int> <chr>          <chr>         
#>  1  379254 Minnesota~ Boston P~         1        1 #14 Jillian D~ 19:59         
#>  2  379254 Minnesota~ Boston P~         1        2 #17 McKenna B~ 19:43         
#>  3  379254 Minnesota~ Boston P~         1        3 #17 McKenna B~ 19:36         
#>  4  379254 Minnesota~ Boston P~         1        4 #21 Audra Mor~ 18:25         
#>  5  379254 Minnesota~ Boston P~         1        5 #21 Audra Mor~ 18:13         
#>  6  379254 Minnesota~ Boston P~         1        6 #21 Audra Mor~ 17:38         
#>  7  379254 Minnesota~ Boston P~         1        7 #9 Allie Thun~ 17:24         
#>  8  379254 Minnesota~ Boston P~         1        8 #23 Carlee Tu~ 16:54         
#>  9  379254 Minnesota~ Boston P~         1        9 #21 Christina~ 16:48         
#> 10  379254 Minnesota~ Boston P~         1       10 #19 Haley Mac~ 16:29         
#> # ... with 194 more rows, and 29 more variables: sec_from_start <dbl>,
#> #   on_ice_situation <chr>, home_skaters <dbl>, away_skaters <dbl>,
#> #   home_goals <chr>, away_goals <chr>, leader <chr>, team <chr>, event <chr>,
#> #   first_player <chr>, first_number <chr>, second_player <chr>,
#> #   second_number <chr>, third_player <chr>, third_number <chr>,
#> #   shot_type <chr>, shot_result <chr>, goalie_involved <chr>, penalty <dbl>,
#> #   penalty_length <chr>, penalty_called <chr>, offensive_player_one <chr>, ...
```
…
