…
## Examples

``` r
 try(ahl_schedule()) 
#> ── AHL Schedule from HockeyTech ─────────────────────────── fastRhockey 1.0.0 ──
#> ℹ Data updated: 2026-07-18 18:45:00 UTC
#> # A tibble: 10,000 × 12
#>    game_id game_date     game_status home_team home_team_id home_score away_team
#>    <chr>   <chr>         <chr>       <chr>     <chr>        <chr>      <chr>    
#>  1 1005950 1995-01-17T2… Final       U.S. AHL… 377          4          Canadian…
#>  2 1005949 1996-01-16T1… Final       U.S. AHL… 377          6          Canadian…
#>  3 1005948 1997-01-16T2… Final SO    Canadian… 367          2          World AH…
#>  4 1005947 1998-02-11T1… Final       PlanetUS… 368          10         Canadian…
#>  5 1005946 1999-01-25T2… Final SO    PlanetUS… 368          5          Canadian…
#>  6 1005942 2000-01-17T1… Final       PlanetUS… 368          3          Canadian…
#>  7 1005940 2001-01-15T1… Final       PlanetUS… 368          10         Canadian…
#>  8 1005939 2002-02-14T2… Final       Canadian… 367          13         PlanetUS…
#>  9 1005938 2003-02-03T1… Final       PlanetUS… 368          7          Canadian…
#> 10 1005937 2004-02-09T1… Final       PlanetUS… 368          5          Canadian…
#> # ℹ 9,990 more rows
#> # ℹ 5 more variables: away_team_id <chr>, away_score <chr>, venue <chr>,
#> #   season_id <chr>, game_type <chr>
```
