…
## Author

Saiem Gilani

## Examples

``` r
# \donttest{
  try(espn_nhl_pbp(game_id = "401688263"))
#> ── NHL Play-by-Play data from ESPN.com ──────────────────── fastRhockey 1.0.0 ──
#> ℹ Data updated: 2026-06-24 02:02:49 UTC
#> # A tibble: 244 × 48
#>    id              sequence_number type_id type_text text  away_score home_score
#>    <chr>           <chr>           <chr>   <chr>     <chr>      <int>      <int>
#>  1 40168826300000… 2               518     Period S… Star…          0          0
#>  2 40168826300000… 3               502     Face Off  Dyla…          0          0
#>  3 40168826300000… 4               503     Hit       Vlad…          0          0
#>  4 40168826300000… 5               506     Shot      Vlad…          0          0
#>  5 40168826300000… 6               506     Shot      Albe…          0          0
#>  6 40168826300000… 7               1402    Giveaway  Give…          0          0
#>  7 40168826300000… 8               507     Missed    Fran…          0          0
#>  8 40168826300000… 9               503     Hit       Mich…          0          0
#>  9 40168826300000… 10              1402    Giveaway  Give…          0          0
#> 10 40168826300000… 11              508     Blocked   Ben …          0          0
#> # ℹ 234 more rows
#> # ℹ 41 more variables: scoring_play <lgl>, score_value <int>,
#> #   shooting_play <lgl>, wallclock <chr>, period_number <int>,
#> #   period_display_value <chr>, clock_display_value <chr>, team_id <chr>,
#> #   coordinate_x <dbl>, coordinate_y <dbl>, strength_id <chr>,
#> #   strength_text <chr>, shot_info_id <chr>, shot_info_text <chr>,
#> #   athlete_id_1 <chr>, athlete_id_2 <chr>, athlete_id_3 <chr>, …
…
