…
## Author

Saiem Gilani

## Examples

``` r
# \donttest{
  try(espn_nhl_season_type_leaders(season = 2026, season_type = 2))
#> ── NHL Season Type Leaders data from ESPN core-v2 ───────── fastRhockey 1.0.0 ──
#> ℹ Data updated: 2026-07-18 18:45:57 UTC
#> # A tibble: 225 × 12
#>    category_name category_display_name category_short_display_name
#>    <chr>         <chr>                 <chr>                      
#>  1 goals         Goals                 G                          
#>  2 goals         Goals                 G                          
#>  3 goals         Goals                 G                          
#>  4 goals         Goals                 G                          
#>  5 goals         Goals                 G                          
#>  6 goals         Goals                 G                          
#>  7 goals         Goals                 G                          
#>  8 goals         Goals                 G                          
#>  9 goals         Goals                 G                          
#> 10 goals         Goals                 G                          
#> # ℹ 215 more rows
#> # ℹ 9 more variables: category_abbreviation <chr>, display_value <chr>,
#> #   value <dbl>, rel <chr>, athlete_ref <chr>, team_ref <chr>,
#> #   statistics_ref <chr>, season <int>, season_type <int>
…
