…
## Author

Saiem Gilani

## Examples

``` r
# \donttest{
  try(espn_nhl_coaches(season = 2026))
#> ── NHL Coaches data from ESPN core-v2 ───────────────────── fastRhockey 1.0.0 ──
#> ℹ Data updated: 2026-07-12 18:39:09 UTC
#> # A tibble: 32 × 6
#>    ref                                    coach_id season  page count page_count
#>    <chr>                                  <chr>     <int> <int> <int>      <int>
#>  1 http://sports.core.api.espn.com/v2/sp… 900        2026     1    32          1
#>  2 http://sports.core.api.espn.com/v2/sp… 2018453    2026     1    32          1
#>  3 http://sports.core.api.espn.com/v2/sp… 4626       2026     1    32          1
#>  4 http://sports.core.api.espn.com/v2/sp… 2591437    2026     1    32          1
#>  5 http://sports.core.api.espn.com/v2/sp… 2017787    2026     1    32          1
#>  6 http://sports.core.api.espn.com/v2/sp… 5013       2026     1    32          1
#>  7 http://sports.core.api.espn.com/v2/sp… 105        2026     1    32          1
#>  8 http://sports.core.api.espn.com/v2/sp… 2017380    2026     1    32          1
#>  9 http://sports.core.api.espn.com/v2/sp… 2560932    2026     1    32          1
#> 10 http://sports.core.api.espn.com/v2/sp… 883        2026     1    32          1
#> # ℹ 22 more rows
…
