Get ESPN NHL League Leaders — espn_nhl_leaders • fastRhockey
…
    Author

    Saiem Gilani

    Examples

# \donttest{
  try(espn_nhl_leaders(category = "offensive", limit = 25))
#> ── NHL Leaders data from ESPN.com ───────────────────────── fastRhockey 1.0.0 ──
#> ℹ Data updated: 2026-06-13 04:18:47 UTC
#> # A tibble: 25 × 51
#>    season season_type requested_season_year  page pagination_count
#>     <int>       <int>                 <int> <int>            <int>
#>  1   2026           3                  2026     1              371
#>  2   2026           3                  2026     1              371
#>  3   2026           3                  2026     1              371
#>  4   2026           3                  2026     1              371
#>  5   2026           3                  2026     1              371
#>  6   2026           3                  2026     1              371
#>  7   2026           3                  2026     1              371
#>  8   2026           3                  2026     1              371
#>  9   2026           3                  2026     1              371
#> 10   2026           3                  2026     1              371
#> # ℹ 15 more rows
#> # ℹ 46 more variables: pagination_limit <int>, pagination_pages <int>,
#> #   league_id <chr>, league_name <chr>, league_abbreviation <chr>,
#> #   athlete_id <chr>, athlete_display_name <chr>, athlete_short_name <chr>,
#> #   athlete_slug <chr>, athlete_position <chr>, athlete_jersey <chr>,
#> #   athlete_team_id <chr>, athlete_team_name <chr>,
#> #   athlete_team_short_name <chr>, athlete_team_logo <chr>, …
…
