…
## Author

Saiem Gilani

## Examples

``` r
# \donttest{
  try(espn_nhl_player_box(game_id = "401688263"))
#> ── NHL Player Box Score data from ESPN.com ──────────────── fastRhockey 1.0.0 ──
#> ℹ Data updated: 2026-06-08 16:00:24 UTC
#> # A tibble: 38 × 53
#>    athlete_id athlete_display_name athlete_short_name athlete_last_name
#>    <chr>      <chr>                <chr>              <chr>            
#>  1 5149125    Connor Bedard        C. Bedard          Bedard           
#>  2 3042056    Tyler Bertuzzi       T. Bertuzzi        Bertuzzi         
#>  3 4874940    Colton Dach          C. Dach            Dach             
#>  4 3042062    Jason Dickinson      J. Dickinson       Dickinson        
#>  5 3115033    Ryan Donato          R. Donato          Donato           
#>  6 3535       Nick Foligno         N. Foligno         Foligno          
#>  7 5428       Taylor Hall          T. Hall            Hall             
#>  8 4392541    Philipp Kurashev     P. Kurashev        Kurashev         
#>  9 3853       Pat Maroon           P. Maroon          Maroon           
#> 10 4422415    Ilya Mikheyev        I. Mikheyev        Mikheyev         
#> # ℹ 28 more rows
#> # ℹ 49 more variables: athlete_jersey <chr>, athlete_headshot_href <chr>,
#> #   athlete_position_name <chr>, athlete_position_abbreviation <chr>,
#> #   athlete_active <lgl>, athlete_scratched <lgl>, stat_group <chr>,
#> #   team_id <chr>, team_abbreviation <chr>, team_display_name <chr>,
#> #   home_away <chr>, team_score <chr>, team_winner <lgl>,
#> #   opponent_team_id <chr>, opponent_team_abbreviation <chr>, game_id <chr>, …
…
