…
## Author

Saiem Gilani

## Examples

``` r
# \donttest{
  try(espn_nhl_team_schedule(team_id = "4", season = 2025))
#> ── NHL Team Schedule data from ESPN.com ─────────────────── fastRhockey 1.0.0 ──
#> ℹ Data updated: 2026-06-24 02:03:45 UTC
#> # A tibble: 82 × 34
#>    game_id   date            name  short_name season_year season_type time_valid
#>    <chr>     <chr>           <chr> <chr>            <int>       <int> <lgl>     
#>  1 401687604 2024-10-09T02:… Chic… CHI @ UTAH        2025           2 TRUE      
#>  2 401687620 2024-10-12T00:… Chic… CHI @ WPG         2025           2 TRUE      
#>  3 401687635 2024-10-13T02:… Chic… CHI @ EDM         2025           2 TRUE      
#>  4 401687654 2024-10-16T01:… Chic… CHI @ CGY         2025           2 TRUE      
#>  5 401687669 2024-10-18T00:… San … SJ @ CHI          2025           2 TRUE      
#>  6 401687684 2024-10-20T00:… Buff… BUF @ CHI         2025           2 TRUE      
#>  7 401687699 2024-10-23T00:… Vanc… VAN @ CHI         2025           2 TRUE      
#>  8 401687719 2024-10-26T00:… Nash… NSH @ CHI         2025           2 TRUE      
#>  9 401687731 2024-10-27T00:… Chic… CHI @ DAL         2025           2 TRUE      
#> 10 401687743 2024-10-29T01:… Chic… CHI @ COL         2025           2 TRUE      
#> # ℹ 72 more rows
#> # ℹ 27 more variables: status_type_id <chr>, status_type_name <chr>,
#> #   status_type_state <chr>, status_type_completed <lgl>, neutral_site <lgl>,
#> #   attendance <int>, venue_id <chr>, venue_full_name <chr>, venue_city <chr>,
#> #   venue_state <chr>, broadcast <chr>, home_id <chr>, home_name <chr>,
#> #   home_abbreviation <chr>, home_location <chr>, home_logo <chr>,
#> #   home_score <dbl>, home_winner <lgl>, away_id <chr>, away_name <chr>, …
…
