…
## Examples

``` r
# \donttest{
  try(load_pwhl_shots_by_period(2024))
#> ─────────────────────────────────────────────────────────── fastRhockey 1.0.0 ──
#> # A tibble: 284 × 7
#>    game_id period_id period home_goals home_shots away_goals away_shots
#>      <int>     <int> <chr>       <int>      <int>      <int>      <int>
#>  1       2         1 1st             0          8          1         13
#>  2       2         2 2nd             0         16          0          4
#>  3       2         3 3rd             0          5          3         11
#>  4       3         1 1st             0         10          0          4
#>  5       3         2 2nd             1         12          1          9
#>  6       3         3 3rd             1          6          1         10
#>  7       3         4 1st OT          0          0          1          1
#>  8       4         1 1st             0         11          2          7
#>  9       4         2 2nd             1         11          1          7
#> 10       4         3 3rd             1         13          0          2
#> # ℹ 274 more rows
…
