…
## Examples

``` r
# \donttest{
  try(load_nhl_pbp_full(2024))
#> ─────────────────────────────────────────────────────────── fastRhockey 1.0.0 ──
#> # A tibble: 1,106,678 × 94
#>    event_type   event secondary_type event_team_abbr event_team_type description
#>    <chr>        <chr> <chr>          <chr>           <chr>           <chr>      
#>  1 CHANGE       Chan… NA             NA              NA              ON: Ryan M…
#>  2 CHANGE       Chan… NA             NA              NA              ON: Victor…
#>  3 FACEOFF      Face… NA             NSH             away            Ryan O'Rei…
#>  4 PERIOD_START Peri… NA             NA              NA              Start of P…
#>  5 CHANGE       Chan… NA             NA              NA              ON: Roman …
#>  6 CHANGE       Chan… NA             NA              NA              ON: Luke S…
#>  7 CHANGE       Chan… NA             NA              NA              ON: Yakov …
#>  8 CHANGE       Chan… NA             NA              NA              ON: Nikita…
#>  9 CHANGE       Chan… NA             NA              NA              ON: Steven…
#> 10 STOP         Stop… NA             NA              NA              Stoppage i…
#> # ℹ 1,106,668 more rows
#> # ℹ 88 more variables: period <int>, period_type <chr>, period_time <chr>,
#> #   period_seconds <int>, period_seconds_remaining <int>,
#> #   period_time_remaining <chr>, game_seconds <int>,
#> #   game_seconds_remaining <int>, home_score <int>, away_score <int>,
#> #   event_player_1_name <chr>, event_player_1_type <chr>,
#> #   event_player_1_id <int>, event_player_2_name <chr>, …
…
