…
## Examples

``` r
# \donttest{
  try(load_pwhl_officials(2024))
#> ─────────────────────────────────────────────────────────── fastRhockey 1.0.0 ──
#> # A tibble: 340 × 6
#>    game_id role        first_name last_name   jersey_number official_role
#>      <int> <chr>       <chr>      <chr>               <int> <chr>        
#>  1       2 Referee     Jake       Kamrass                 0 Referee      
#>  2       2 Referee     Lacey      Senuk                   0 Referee      
#>  3       2 Linesperson Antoine    Bujold-Roux            72 Linesperson  
#>  4       2 Linesperson Erin       Zach                   60 Linesperson  
#>  5       3 Referee     Elizabeth  Mantha                 15 Referee      
#>  6       3 Referee     Liam       Maaskant                0 Referee      
#>  7       3 Linesperson Jessica    Chartrand              26 Linesperson  
#>  8       3 Linesperson Anthony    Lapointe               78 Linesperson  
#>  9       4 Referee     Kelly      Cooke                  29 Referee      
#> 10       4 Referee     Jordan     Deckard                 0 Referee      
#> # ℹ 330 more rows
…
