…
## Examples

``` r
# \donttest{
  try(load_nhl_pbp_lite(2026))
#> ─────────────────────────────────────────────────────────── fastRhockey 1.0.0 ──
#> # A tibble: 442,031 × 94
#>    event_type   event secondary_type event_team_abbr event_team_type description
#>    <chr>        <chr> <chr>          <chr>           <chr>           <chr>      
#>  1 FACEOFF      Face… NA             CHI             away            Jason Dick…
#>  2 PERIOD_START Peri… NA             NA              NA              Start of P…
#>  3 BLOCKED_SHOT Bloc… NA             CHI             away            Brad March…
#>  4 STOP         Stop… NA             NA              NA              Stoppage i…
#>  5 FACEOFF      Face… NA             CHI             away            Jason Dick…
#>  6 GIVEAWAY     Give… NA             FLA             home            Giveaway b…
#>  7 GIVEAWAY     Give… NA             CHI             away            Giveaway b…
#>  8 BLOCKED_SHOT Bloc… NA             CHI             away            Mackie Sam…
#>  9 STOP         Stop… NA             NA              NA              Stoppage i…
#> 10 FACEOFF      Face… NA             FLA             home            Jesper Boq…
#> # ℹ 442,021 more rows
#> # ℹ 88 more variables: period <int>, period_type <chr>, period_time <chr>,
#> #   period_seconds <int>, period_seconds_remaining <int>,
#> #   period_time_remaining <chr>, game_seconds <int>,
#> #   game_seconds_remaining <int>, home_score <int>, away_score <int>,
#> #   event_player_1_name <chr>, event_player_1_type <chr>,
#> #   event_player_1_id <int>, event_player_2_name <chr>, …
…
