…
## Examples

``` r
# \donttest{
  try(load_pwhl_game_rosters(2024))
#> ─────────────────────────────────────────────────────────── fastRhockey 1.0.0 ──
#> # A tibble: 3,545 × 14
#>    game_id team_id team     team_abbr team_side player_type player_id first_name
#>      <int>   <int> <chr>    <chr>     <chr>     <chr>           <int> <chr>     
#>  1       2       6 PWHL To… TOR       home      skater             71 Jocelyne  
#>  2       2       6 PWHL To… TOR       home      skater            133 Lauriane  
#>  3       2       6 PWHL To… TOR       home      skater             68 Kali      
#>  4       2       6 PWHL To… TOR       home      skater            131 Olivia    
#>  5       2       6 PWHL To… TOR       home      skater            101 Alexa     
#>  6       2       6 PWHL To… TOR       home      skater             74 Allie     
#>  7       2       6 PWHL To… TOR       home      skater             67 Renata    
#>  8       2       6 PWHL To… TOR       home      skater            126 Samantha  
#>  9       2       6 PWHL To… TOR       home      skater             65 Jesse     
#> 10       2       6 PWHL To… TOR       home      skater             72 Rebecca   
#> # ℹ 3,535 more rows
#> # ℹ 6 more variables: last_name <chr>, jersey_number <int>, position <chr>,
#> #   birth_date <chr>, starting <chr>, status <chr>
…
