…
- tablename:

  The name of the data table within the database

## Value

A data frame of class `fastRhockey_data`

## Examples

``` r
# \donttest{
  try(load_nhl_game_rosters(2026))
#> ─────────────────────────────────────────────────────────── fastRhockey 1.0.0 ──
#> # A tibble: 1,164 × 8
#>    player_id full_name      first_name last_name team_abbr team_id position_code
#>        <int> <chr>          <chr>      <chr>     <chr>       <int> <chr>        
#>  1   8473419 Brad Marchand  Brad       Marchand  FLA            13 L            
#>  2   8473422 Nick Foligno   Nick       Foligno   CHI            16 L            
#>  3   8473507 Jeff Petry     Jeff       Petry     FLA            13 D            
#>  4   8475179 Dmitry Kulikov Dmitry     Kulikov   FLA            13 D            
#>  5   8475683 Sergei Bobrov… Sergei     Bobrovsky FLA            13 G            
#>  6   8476473 Connor Murphy  Connor     Murphy    CHI            16 D            
#>  7   8476882 Teuvo Teravai… Teuvo      Teravain… CHI            16 C            
#>  8   8476891 Matt Grzelcyk  Matt       Grzelcyk  CHI            16 D            
#>  9   8477409 Carter Verhae… Carter     Verhaeghe FLA            13 C            
#> 10   8477444 Andre Burakov… Andre      Burakovs… CHI            16 L            
#> # ℹ 1,154 more rows
#> # ℹ 1 more variable: sweater_number <int>
…
