…
## Examples

``` r
# \donttest{
  try(load_nhl_scoring(2026))
#> ─────────────────────────────────────────────────────────── fastRhockey 1.0.0 ──
#> # A tibble: 8,682 × 47
#>    situationCode eventId strength playerId headshot       highlightClipSharing…¹
#>    <chr>           <int> <chr>       <int> <chr>          <chr>                 
#>  1 1551              258 ev        8483493 https://asset… https://nhl.com/video…
#>  2 1551              274 ev        8478421 https://asset… https://nhl.com/video…
#>  3 1451              366 pp        8477409 https://asset… https://nhl.com/video…
#>  4 1551              630 ev        8476882 https://asset… https://nhl.com/video…
#>  5 1551             1101 ev        8480003 https://asset… https://nhl.com/video…
#>  6 1551              481 ev        8479638 https://asset… https://nhl.com/video…
#>  7 1560             1123 ev        8479638 https://asset… https://nhl.com/video…
#>  8 1560              112 ev        8481481 https://asset… https://nhl.com/video…
#>  9 1551              562 ev        8480039 https://asset… https://nhl.com/video…
#> 10 1551              647 ev        8484258 https://asset… https://nhl.com/video…
#> # ℹ 8,672 more rows
#> # ℹ abbreviated name: ¹​highlightClipSharingUrl
#> # ℹ 41 more variables: highlightClipSharingUrlFr <chr>, highlightClip <dbl>,
#> #   highlightClipFr <dbl>, discreteClip <dbl>, discreteClipFr <dbl>,
#> #   goalsToDate <int>, awayScore <int>, homeScore <int>, timeInPeriod <chr>,
#> #   shotType <chr>, goalModifier <chr>, assists <chr>, pptReplayUrl <chr>,
#> #   homeTeamDefendingSide <chr>, isHome <lgl>, game_id <int>, …
…
