…
## Examples

``` r
# \donttest{
  try(load_pwhl_three_stars(2024))
#> ─────────────────────────────────────────────────────────── fastRhockey 1.0.0 ──
#> # A tibble: 255 × 20
#>    game_id  star team_id team           team_abbr player_id first_name last_name
#>      <int> <int>   <int> <chr>          <chr>         <int> <chr>      <chr>    
#>  1       2     1       4 PWHL New York  NY              155 Corinne    Schroeder
#>  2       2     2       4 PWHL New York  NY               34 Alex       Carpenter
#>  3       2     3       4 PWHL New York  NY               44 Ella       Shelton  
#>  4       3     1       3 PWHL Montreal  MTL              80 Ann-Sophie Bettez   
#>  5       3     2       3 PWHL Montreal  MTL              28 Ann-Renée  Desbiens 
#>  6       3     3       5 PWHL Ottawa    OTT              61 Hayley     Scamurra 
#>  7       4     1       2 PWHL Minnesota MIN              22 Nicole     Hensley  
#>  8       4     2       2 PWHL Minnesota MIN              21 Taylor     Heise    
#>  9       4     3       1 PWHL Boston    BOS              17 Theresa    Schafzahl
#> 10       5     1       6 PWHL Toronto   TOR              64 Kristen    Campbell 
#> # ℹ 245 more rows
#> # ℹ 12 more variables: jersey_number <int>, position <chr>, is_goalie <int>,
#> #   is_home <int>, goals <int>, assists <int>, points <int>, shots <int>,
#> #   saves <int>, shots_against <int>, goals_against <int>, time_on_ice <chr>
…
