…
## Value

A `fastRhockey_data` / `data.frame` with one row per unique game,
containing `game_id`, `season`, `game_type`, `game_date`, `home_team`,
and `away_team`. Returns `NULL` on outer failure.

## Examples

``` r
# \donttest{
  try(nhl_game_ids_by_season(season = 2025, team_abbr = "TOR"))
#> ── NHL Game IDs by Season ───────────────────────────────── fastRhockey 1.0.0 ──
#> ℹ Data updated: 2026-04-13 17:05:16 UTC
#> # A tibble: 82 × 6
#>       game_id   season game_type game_date  home_team away_team
#>         <int>    <int>     <int> <chr>      <chr>     <chr>    
#>  1 2024020006 20242025         2 2024-10-09 MTL       TOR      
#>  2 2024020015 20242025         2 2024-10-10 NJD       TOR      
#>  3 2024020026 20242025         2 2024-10-12 TOR       PIT      
#>  4 2024020058 20242025         2 2024-10-16 TOR       LAK      
#>  5 2024020079 20242025         2 2024-10-19 TOR       NYR      
#>  6 2024020091 20242025         2 2024-10-21 TOR       TBL      
#>  7 2024020097 20242025         2 2024-10-22 CBJ       TOR      
#>  8 2024020110 20242025         2 2024-10-24 TOR       STL      
#>  9 2024020125 20242025         2 2024-10-26 BOS       TOR      
#> 10 2024020143 20242025         2 2024-10-28 WPG       TOR      
#> # ℹ 72 more rows
…
