…
## Examples

``` r
# \donttest{
   try(nhl_draft())
#> ── NHL Draft Data from NHL.com ──────────────────────────── fastRhockey 1.0.0 ──
#> ℹ Data updated: 2026-07-18 18:47:41 UTC
#> # A tibble: 32 × 20
#>    round pick_in_round overall_pick team_id team_abbrev team_name$default  $fr  
#>    <int>         <int>        <int>   <int> <chr>       <chr>              <chr>
#>  1     1             1            1      10 TOR         Toronto Maple Lea… Mapl…
#>  2     1             2            2      28 SJS         San Jose Sharks    Shar…
#>  3     1             3            3      23 VAN         Vancouver Canucks  Canu…
#>  4     1             4            4       7 BUF         Buffalo Sabres     Sabr…
#>  5     1             5            5       3 NYR         New York Rangers   Rang…
#>  6     1             6            6      20 CGY         Calgary Flames     Flam…
#>  7     1             7            7      55 SEA         Seattle Kraken     Krak…
#>  8     1             8            8      52 WPG         Winnipeg Jets      Jets…
#>  9     1             9            9      28 SJS         San Jose Sharks    Shar…
#> 10     1            10           10      18 NSH         Nashville Predato… Pred…
#> # ℹ 22 more rows
#> # ℹ 14 more variables: team_common_name <df[,2]>,
#> #   team_place_name_with_preposition <df[,2]>, display_abbrev <df[,1]>,
#> #   team_logo_light <chr>, team_logo_dark <chr>, team_pick_history <chr>,
#> #   first_name <df[,1]>, last_name <df[,1]>, position_code <chr>,
#> #   country_code <chr>, height <int>, weight <int>, amateur_league <chr>,
#> #   amateur_club_name <chr>
…
