NHL Draft Prospects — nhl_draft_prospects • fastRhockey
…
    Examples

# \donttest{
   try(nhl_draft_prospects())
#> ── NHL Draft Prospects data from NHL.com ────────────────── fastRhockey 0.3.0 ──
#> ℹ Data updated: 2022-05-01 03:01:53 UTC
#> # A tibble: 11,534 × 28
#>    prospect_id full_name     link  first_name last_name birth_date height weight
#>          <int> <chr>         <chr> <chr>      <chr>     <chr>      <chr>   <int>
#>  1       87035 William Germ… /api… William    German    2003-07-09 "6' 0…    176
#>  2       95131 Edgard Ficht… /api… Edgard     Fichtenau 2004-09-11 "6' 1…    190
#>  3       85534 Jake Snashall /api… Jake       Snashall  2003-01-23  NA        NA
#>  4       88591 Michael Quinn /api… Michael    Quinn     2003-03-25 "5' 1…    175
#>  5       86222 Jacob Leblanc /api… Jacob      Leblanc   2002-04-11 "5' 1…    156
#>  6       93182 Owen Philps   /api… Owen       Philps    2002-12-17 "6' 0…    175
#>  7       92864 Fabian Plogas /api… Fabian     Plogas    2002-12-02 "6' 2…    159
#>  8       86284 Zachary Byard /api… Zachary    Byard     2002-05-04 "6' 2…    224
#>  9       87651 Kirill Tyutc… /api… Kirill     Tyutchen… 2002-08-19 "6' 0…    183
#> 10       84579 Gabriel Gawr… /api… Gabriel    Gawron    2002-08-18 "5' 1…    174
#> # … with 11,524 more rows, and 20 more variables: shoots_catches <chr>,
#> #   draft_status <chr>, birth_city <chr>, birth_country <chr>,
#> #   birth_state_province <chr>, nhl_player_id <int>, nationality <chr>,
#> #   primary_position_code <chr>, primary_position_name <chr>,
#> #   primary_position_type <chr>, primary_position_abbreviation <chr>,
#> #   prospect_category_id <int>, prospect_category_short_name <chr>,
#> #   prospect_category_name <chr>, amateur_team_link <chr>, …
…
