…
## Examples

``` r
# \donttest{
  try(nhl_schedule(day = "2024-01-15"))
#> ── NHL Schedule ─────────────────────────────────────────── fastRhockey 1.0.0 ──
#> ℹ Data updated: 2026-05-29 18:47:28 UTC
#> # A tibble: 53 × 13
#>       game_id season_full game_type game_date  game_time          home_team_abbr
#>         <int> <chr>       <chr>     <chr>      <chr>              <chr>         
#>  1 2023020672 20232024    R         2024-01-15 2024-01-15T17:00:… BUF           
#>  2 2023020671 20232024    R         2024-01-15 2024-01-15T18:00:… BOS           
#>  3 2023020673 20232024    R         2024-01-15 2024-01-15T18:00:… CBJ           
#>  4 2023020674 20232024    R         2024-01-15 2024-01-15T18:00:… FLA           
#>  5 2023020677 20232024    R         2024-01-15 2024-01-15T18:00:… PIT           
#>  6 2023020675 20232024    R         2024-01-15 2024-01-15T20:00:… CAR           
#>  7 2023020676 20232024    R         2024-01-15 2024-01-15T23:00:… MIN           
#>  8 2023020680 20232024    R         2024-01-15 2024-01-15T23:00:… VGK           
#>  9 2023020678 20232024    R         2024-01-15 2024-01-16T00:00:… MTL           
#> 10 2023020679 20232024    R         2024-01-15 2024-01-16T01:00:… STL           
#> # ℹ 43 more rows
#> # ℹ 7 more variables: away_team_abbr <chr>, home_team_name <chr>,
#> #   away_team_name <chr>, home_score <int>, away_score <int>, game_state <chr>,
#> #   venue <chr>
  try(nhl_schedule(season = 2025, team_abbr = "TOR"))
#> ── NHL Schedule ─────────────────────────────────────────── fastRhockey 1.0.0 ──
#> ℹ Data updated: 2026-05-29 18:47:31 UTC
#> # A tibble: 95 × 16
#>       game_id season_full game_type game_date  game_time          home_team_abbr
#>         <int> <chr>       <chr>     <chr>      <chr>              <chr>         
#>  1 2024020006 20242025    R         2024-10-09 2024-10-09T23:00:… MTL           
#>  2 2024020015 20242025    R         2024-10-10 2024-10-10T23:00:… NJD           
#>  3 2024020026 20242025    R         2024-10-12 2024-10-12T23:00:… TOR           
#>  4 2024020058 20242025    R         2024-10-16 2024-10-16T23:30:… TOR           
#>  5 2024020079 20242025    R         2024-10-19 2024-10-19T23:00:… TOR           
#>  6 2024020091 20242025    R         2024-10-21 2024-10-21T23:30:… TOR           
#>  7 2024020097 20242025    R         2024-10-22 2024-10-22T23:30:… CBJ           
#>  8 2024020110 20242025    R         2024-10-24 2024-10-24T23:00:… TOR           
#>  9 2024020125 20242025    R         2024-10-26 2024-10-26T23:00:… BOS           
#> 10 2024020143 20242025    R         2024-10-28 2024-10-28T23:30:… WPG           
#> # ℹ 85 more rows
#> # ℹ 10 more variables: away_team_abbr <chr>, home_team_name <chr>,
#> #   away_team_name <chr>, home_score <int>, away_score <int>, game_state <chr>,
#> #   venue <chr>, series_letter <chr>, playoff_round <int>,
#> #   series_game_number <int>
…
