…
## Examples

``` r
 try(ohl_pbp(game_id = 27225)) 
#> ── OHL Play-by-Play from HockeyTech ─────────────────────── fastRhockey 1.0.0 ──
#> ℹ Data updated: 2026-07-18 17:04:50 UTC
#> # A tibble: 149 × 104
#>    game_id event team_id period_of_game time_of_period x_coord y_coord player_id
#>      <dbl> <chr> <chr>   <chr>          <chr>            <dbl>   <dbl>     <int>
#>  1   27225 goal… 11      1              0:00              NA     NA           NA
#>  2   27225 goal… 34      1              0:00              NA     NA           NA
#>  3   27225 face… NA      1              0:00               0      0         8384
#>  4   27225 face… NA      1              0:10             -66.7   28.6       8384
#>  5   27225 shot  34      1              1:05              67.7    5.38      8186
#>  6   27225 face… NA      1              1:05               0      0         8179
#>  7   27225 face… NA      1              1:24             -52.3  -28.6       8179
#>  8   27225 shot  34      1              1:54              73    -12.8       8772
#>  9   27225 shot  11      1              2:51             -55.7    2.27      8600
#> 10   27225 face… NA      1              2:51             -52.3  -28.6       9027
#> # ℹ 139 more rows
#> # ℹ 96 more variables: player_name_first <chr>, player_name_last <chr>,
#> #   player_position <chr>, goal <lgl>, goalie_id <int>, goalie_first <chr>,
#> #   goalie_last <chr>, home_win <chr>, player_team_id <chr>, event_type <chr>,
#> #   shot_quality <chr>, player_two_id <int>, player_two_name_first <chr>,
#> #   player_two_name_last <chr>, player_two_position <chr>,
#> #   penalty_length <chr>, power_play <chr>, empty_net <chr>, …
```
