…
## Examples

``` r
 try(ohl_schedule()) 
#> ── OHL Schedule from HockeyTech ─────────────────────────── fastRhockey 1.0.0 ──
#> ℹ Data updated: 2026-06-12 13:23:03 UTC
#> # A tibble: 10,000 × 12
#>    game_id game_date     game_status home_team home_team_id home_score away_team
#>    <chr>   <chr>         <chr>       <chr>     <chr>        <chr>      <chr>    
#>  1 6106    1997-09-17T0… Final       Kingston… 2            9          Oshawa G…
#>  2 6107    1997-09-18T0… Final       North Ba… 3            5          Erie Ott…
#>  3 6108    1997-09-18T0… Final       Peterbor… 6            4          Bellevil…
#>  4 6109    1997-09-18T0… Final       Windsor … 17           5          Sault St…
#>  5 6110    1997-09-19T0… Final       Guelph S… 9            4          Toronto …
#>  6 6111    1997-09-19T0… Final       Kingston… 2            9          Peterbor…
#>  7 6112    1997-09-19T0… Final       Kitchene… 10           3          Barrie C…
#>  8 6114    1997-09-19T0… Final       Ottawa 6… 5            2          Sarnia S…
#>  9 6115    1997-09-19T0… Final       Sudbury … 12           2          Erie Ott…
#> 10 6116    1997-09-20T0… Final       Barrie C… 7            3          Sudbury …
#> # ℹ 9,990 more rows
#> # ℹ 5 more variables: away_team_id <chr>, away_score <chr>, venue <chr>,
#> #   season_id <chr>, game_type <chr>
```
