PHF Player Leaderboards — phf_leaders • fastRhockey
…
season_type
Season type: Regular Season or Playoffs

    Value

A data frame of stat leaders

    Examples

# \donttest{
 try(phf_leaders(player_type = "skaters", season = 2022, season_type="Regular Season"))
#> ── PHF Leaderboard Information from PremierHockeyFederation.com ────────────────
#> ℹ Data updated: 2022-11-08 13:48:59 UTC
#> # A tibble: 100 × 30
#>    player…¹ playe…² team_…³ posit…⁴ games…⁵ goals assists points shots…⁶ plus_…⁷
#>       <int> <chr>   <chr>   <chr>     <int> <int>   <int>  <int>   <int>   <int>
#>  1       22 Kenned… Connec… F            20    13      20     33      85      25
#>  2       13 Mikyla… Toront… F            19    13      17     30      96      23
#>  3        3 Jonna … Minnes… F            20     9      15     24      80       4
#>  4       17 Taylor… Connec… F            20    11      13     24      83      17
#>  5       14 Madiso… Metrop… F            20    12      11     23      80      11
#>  6        9 Allie … Minnes… F            20    18       3     21      93       3
#>  7       88 Amanda… Connec… F            18    12       9     21      52      16
#>  8       27 Shiann… Toront… F            20     8      12     20      88      15
#>  9       67 Emma W… Toront… F            20     9       9     18      55      14
#> 10       18 Rebecc… Metrop… F            20     9       8     17      72       7
#> # … with 90 more rows, 20 more variables: faceoffs_won_lost <chr>,
#> #   faceoffs_won <int>, faceoffs_lost <int>, blocks <int>,
#> #   penalty_minutes <int>, takeaways <int>, giveaways <int>, scoring_pct <dbl>,
#> #   powerplay_goals <int>, shorthanded_goals <int>, game_winning_goals <int>,
#> #   points_per_game_average <dbl>, faceoffs_win_pct <dbl>, shots_blocked <int>,
#> #   shots <int>, season_type <chr>, player_href <chr>, team_href <chr>,
#> #   player_id <int>, team_id <int>, and abbreviated variable names …
…
