PHF Player Stats — phf_player_stats • fastRhockey
…
#> 4 ""       ""      ""         45     8     2     0     1 722:35      302      27
#> 5 "2020-2… "Bosto… "NWHL"      2     0     0     0     0 00:00         0       0
#> 6 "2019-2… "Bosto… "NWHL"      1     0     0     0     0 00:00         0       0
#> 7 ""       ""      ""          3     0     0     0     0 00:00         0       0
#> # … with 15 more variables: save_percent <dbl>, GAA <dbl>, SO <int>,
#> #   saves <int>, penalty_minutes <int>, goals <int>, assists <int>, GS <int>,
#> #   player_name <chr>, player_id <dbl>, position <chr>,
#> #   player_image_href <chr>, team_href <chr>, season_type <chr>, team_id <int>,
#> #   and abbreviated variable names ¹​team_name, ²​division, ³​minutes_played,
#> #   ⁴​shots_against, ⁵​goals_against
#> 
#> $game_log
#> ── PHF Goalies Game Log Stats Information from PremierHockeyFederation.com ─────
#> ℹ Data updated: 2023-01-04 06:14:54 UTC
#> # A tibble: 48 × 16
#>    date        game  shots…¹ goals…² saves save_…³ minut…⁴ penal…⁵ goals assists
#>    <chr>       <chr>   <int>   <int> <int>   <dbl> <chr>     <int> <int>   <int>
#>  1 March 20, … Prid…       0       0     0   0     00:00         0     0       0
#>  2 March 13, … Prid…      25       4    21   0.84  62:11         0     0       0
#>  3 March 12, … Prid…       0       0     0   0     00:00         0     0       0
#>  4 March 6, 2… Prid…       0       0     0   0     00:00         0     0       0
#>  5 February 2… Beau…       0       0     0   0     00:00         0     0       0
#>  6 February 2… Beau…       0       0     0   0     00:00         0     0       0
#>  7 February 6… Whal…      10       3     7   0.7   30:52         0     0       0
#>  8 January 23… Rive…      18       1    17   0.944 40:00         0     0       0
#>  9 December 5… Six …       0       0     0   0     00:00         0     0       0
#> 10 November 2… Prid…      26       1    25   0.962 61:15         0     0       0
#> # … with 38 more rows, 6 more variables: player_name <chr>, player_id <dbl>,
#> #   position <chr>, player_image_href <chr>, game_href <chr>, game_id <int>,
#> #   and abbreviated variable names ¹​shots_against, ²​goals_against,
#> #   ³​save_percent, ⁴​minutes_played, ⁵​penalty_minutes
…
