PHF Game All — phf_game_all • fastRhockey
…
    Value

A named list of data frames: plays, team_box, skaters, goalies, game_details,
scoring_summary, shootout_summary,
penalty_summary, officials, team_staff, timeouts

    Examples

# \donttest{
  try(phf_game_all(game_id = 612254))
#> $plays
#> ── PHF Play-by-Play Information from PremierHockeyFederation.com ───────────────
#> ℹ Data updated: 2023-01-05 06:16:15 UTC
#> # A tibble: 195 × 79
#>    play_type team  time  play_…¹ scori…² scori…³ offen…⁴ offen…⁵ offen…⁶ offen…⁷
#>    <chr>     <chr> <chr> <chr>   <chr>   <chr>   <chr>   <chr>   <chr>   <chr>  
#>  1 Goalie    Metr… 00:00 Starti… NA      NA      NA      NA      NA      NA     
#>  2 Goalie    Toro… 00:00 Starti… NA      NA      NA      NA      NA      NA     
#>  3 Faceoff   Toro… 00:05 #27 Sh… NA      NA      NA      NA      NA      NA     
#>  4 Giveaway  Toro… 00:40 #27 Sh… NA      NA      NA      NA      NA      NA     
#>  5 Shot      Metr… 00:42 #77 Ke… NA      NA      NA      NA      NA      NA     
#>  6 Faceoff   Metr… 00:48 #77 Ke… NA      NA      NA      NA      NA      NA     
#>  7 Shot      Toro… 01:15 #41 Br… NA      NA      NA      NA      NA      NA     
#>  8 Faceoff   Metr… 01:25 #28 Le… NA      NA      NA      NA      NA      NA     
#>  9 Shot      Toro… 02:40 #67 Em… NA      NA      NA      NA      NA      NA     
#> 10 Faceoff   Metr… 02:42 #16 Sa… NA      NA      NA      NA      NA      NA     
#> # … with 185 more rows, 69 more variables: offensive_player_name_5 <chr>,
#> #   offensive_player_name_6 <chr>, defending_team_abbrev <chr>,
#> #   defending_team_on_ice <chr>, defensive_player_name_1 <chr>,
#> #   defensive_player_name_2 <chr>, defensive_player_name_3 <chr>,
#> #   defensive_player_name_4 <chr>, defensive_player_name_5 <chr>,
#> #   defensive_player_name_6 <chr>, period_id <int>, game_id <dbl>,
#> #   game_date <chr>, home_team <chr>, home_location <chr>, …
…
#>   <chr>   <dbl> <lgl>      <int>   <dbl>   <dbl>   <dbl>   <dbl>   <dbl>   <dbl>
#> 1 met    612254 TRUE           3       0       5     0         6   0.516      13
#> 2 tor    612254 FALSE          2       2       4     0.5      10   0.484      11
#> # … with 15 more variables: takeaways <dbl>, giveaways <dbl>,
#> #   period_1_shots <int>, period_2_shots <int>, period_3_shots <int>,
#> #   overtime_shots <int>, shootout_made_shots <int>,
#> #   shootout_missed_shots <int>, total_shots <int>, period_1_scoring <int>,
#> #   period_2_scoring <int>, period_3_scoring <int>, overtime_scoring <int>,
#> #   shootout_made_scoring <dbl>, shootout_missed_scoring <dbl>, and abbreviated
#> #   variable names ¹​total_scoring, ²​successful_power_play, …
#> 
#> $skaters
#> ── PHF Skaters Boxscore Information from PremierHockeyFederation.com ───────────
#> ℹ Data updated: 2023-01-05 06:16:20 UTC
#> # A tibble: 35 × 24
#>    player_…¹ playe…² posit…³ goals assists points penal…⁴ plus_…⁵ shots…⁶ blocks
#>        <int> <chr>   <chr>   <int>   <int>  <int>   <int>   <int>   <int>  <int>
#>  1        10 Lexi T… F           0       1      1       0      -1       0      0
#>  2        11 Breann… F           0       1      1       0      -1       1      1
#>  3        41 Britta… F           1       0      1       0       0       5      2
#>  4        67 Emma W… F           0       1      1       0       1       5      1
#>  5        86 Michel… F           0       1      1       2       1       2      0
#>  6        96 Domini… D           1       0      1       0       0       3      1
#>  7         3 Nadine… F           0       0      0       0       0       0      0
#>  8         8 Leah L… F           0       0      0       0       1       1      0
#>  9         9 Kati T… D           0       0      0       0       0       2      1
#> 10        14 Courtn… F           0       0      0       2       0       1      0
#> # … with 25 more rows, 14 more variables: giveaways <int>, takeaways <int>,
#> #   faceoffs_won_lost <chr>, faceoffs_win_pct <dbl>, powerplay_goals <int>,
#> #   shorthanded_goals <int>, shots <int>, shots_blocked <int>,
#> #   faceoffs_won <int>, faceoffs_lost <int>, team <chr>, skaters_href <chr>,
#> #   player_id <chr>, game_id <dbl>, and abbreviated variable names
#> #   ¹​player_jersey, ²​player_name, ³​position, ⁴​penalty_minutes, ⁵​plus_minus,
#> #   ⁶​shots_on_goal
…
