…
## Examples

``` r
# \donttest{
try(pwhl_pbp(game_id = 27))
#> ── PWHL Play-by-Play data from HockeyTech ───────────────── fastRhockey 1.0.0 ──
#> ℹ Data updated: 2026-06-12 02:23:32 UTC
#> # A tibble: 114 × 100
#>    game_id event team_id period_of_game time_of_period x_coord y_coord player_id
#>      <dbl> <chr> <chr>   <chr>          <chr>            <dbl>   <dbl>     <int>
#>  1      27 goal… 1       1              0:00              NA     NA           NA
#>  2      27 goal… 3       1              0:00              NA     NA           NA
#>  3      27 face… NA      1              0:00               0      0           15
#>  4      27 face… NA      1              0:31              52.3   28.6         15
#>  5      27 shot  3       1              1:14              60     17           84
#>  6      27 face… NA      1              1:22             -66.7  -15.9        109
#>  7      27 face… NA      1              1:58             -32.3  -21.8          4
#>  8      27 shot  1       1              3:49             -58.7  -12.8        167
#>  9      27 shot  3       1              4:27              65.3   11.0         84
#> 10      27 shot  3       1              4:41              51      1.42        32
#> # ℹ 104 more rows
#> # ℹ 92 more variables: player_name_first <chr>, player_name_last <chr>,
#> #   player_position <chr>, goal <lgl>, goalie_id <int>, goalie_first <chr>,
#> #   goalie_last <chr>, home_win <chr>, player_team_id <chr>, event_type <chr>,
#> #   shot_quality <chr>, player_two_id <int>, player_two_name_first <chr>,
#> #   player_two_name_last <chr>, player_two_position <chr>,
#> #   penalty_length <chr>, power_play <chr>, empty_net <chr>, …
…
