…
## Author

Saiem Gilani

## Examples

``` r
# \donttest{
  try(pwhl_game_shifts(game_id = 42))
#> ── PWHL Game Shifts data from HockeyTech ────────────────── fastRhockey 1.0.0 ──
#> ℹ Data updated: 2026-06-12 22:26:34 UTC
#> # A tibble: 730 × 14
#>    game_id player_id first_name last_name jersey_number  home period start_time
#>      <dbl>     <int> <chr>      <chr>     <chr>         <int>  <int> <chr>     
#>  1      42        27 Jillian    Dempsey   14                1      1 03:16     
#>  2      42        27 Jillian    Dempsey   14                1      1 08:49     
#>  3      42        27 Jillian    Dempsey   14                1      1 12:46     
#>  4      42        27 Jillian    Dempsey   14                1      1 17:28     
#>  5      42        27 Jillian    Dempsey   14                1      2 04:21     
#>  6      42        27 Jillian    Dempsey   14                1      2 06:59     
#>  7      42        27 Jillian    Dempsey   14                1      2 10:41     
#>  8      42        27 Jillian    Dempsey   14                1      2 16:32     
#>  9      42        27 Jillian    Dempsey   14                1      3 00:16     
#> 10      42        27 Jillian    Dempsey   14                1      3 04:23     
#> # ℹ 720 more rows
#> # ℹ 6 more variables: end_time <chr>, length <chr>, start_s <int>, end_s <int>,
#> #   goal_on_shift <int>, penalty_on_shift <int>
…
