…
- `away_score` - Away team score.

- `period` - Current period (for live or completed games).

- `clock` - Current clock time (for live games).

## Examples

``` r
# \donttest{
  try(pwhl_scorebar(days_back = 7, days_ahead = 7))
#> ── PWHL Scorebar ────────────────────────────────────────── fastRhockey 1.0.0 ──
#> ℹ Data updated: 2026-04-13 17:06:22 UTC
#> # A tibble: 26 × 15
#>    game_id season_id date       game_date   status home_team        home_team_id
#>      <dbl>     <dbl> <chr>      <chr>       <chr>  <chr>                   <dbl>
#>  1     301         8 2026-03-29 Sun, Mar 29 4      Toronto Sceptres            6
#>  2     302         8 2026-03-29 Sun, Mar 29 4      Minnesota Frost             2
#>  3     303         8 2026-03-29 Sun, Mar 29 4      Seattle Torrent             8
#>  4     304         8 2026-04-01 Wed, Apr 1  4      New York Sirens             4
#>  5     305         8 2026-04-01 Wed, Apr 1  4      Montréal Victoi…            3
#>  6     306         8 2026-04-01 Wed, Apr 1  4      Ottawa Charge               5
#>  7     282         8 2026-04-03 Fri, Apr 3  4      Ottawa Charge               5
#>  8     307         8 2026-04-04 Sat, Apr 4  4      Minnesota Frost             2
#>  9     308         8 2026-04-04 Sat, Apr 4  4      New York Sirens             4
#> 10     309         8 2026-04-07 Tue, Apr 7  4      Montréal Victoi…            3
#> # ℹ 16 more rows
#> # ℹ 8 more variables: home_team_code <chr>, home_score <chr>, away_team <chr>,
#> #   away_team_id <dbl>, away_team_code <chr>, away_score <chr>, period <chr>,
#> #   clock <chr>
…
