…
## Examples

``` r
# \donttest{
  try(pwhl_leaders(position = "skaters", season = 2025))
#> ── PWHL Leaders - skaters ───────────────────────────────── fastRhockey 1.0.0 ──
#> ℹ Data updated: 2026-05-29 17:37:48 UTC
#> # A tibble: 107 × 88
#>    player_id shortname    first_name last_name name  phonetic_name active height
#>    <chr>     <chr>        <chr>      <chr>     <chr> <chr>         <chr>  <chr> 
#>  1 13        H. Knight    Hilary     Knight    Hila… "HILL-AH-REE… 1      "5'11"
#>  2 205       S. Fillier   Sarah      Fillier   Sara… "SAIR-AH FIH… 1      "5'5" 
#>  3 63        D. Watts     Daryl      Watts     Dary… "DAIR-uhl WA… 1      "5'6\…
#>  4 31        M. Poulin    Marie-Phi… Poulin    Mari… ""            1      "5'7" 
#>  5 20        K. Coyne Sc… Kendall    Coyne Sc… Kend… "KEHN-duhl K… 1      "5'2" 
#>  6 89        H. Miller    Hannah     Miller    Hann… "HAN-uh MIH-… 1      "5'9\…
#>  7 36        J. Eldridge  Jessie     Eldridge  Jess… "jeh-see EHL… 1      "5'9\…
#>  8 161       T. Vanišová  Tereza     Vanišová  Tere… " TAH-ree-zu… 1      "5'7" 
#>  9 32        L. Stacey    Laura      Stacey    Laur… "STAY-see"    1      "5'10…
#> 10 21        T. Heise     Taylor     Heise     Tayl… "TAY-luhr HI… 1      "5'10"
#> # ℹ 97 more rows
#> # ℹ 80 more variables: weight <chr>, last_years_club <chr>, age <chr>,
#> #   shoots <chr>, position <chr>, suspension_games_remaining <chr>,
#> #   suspension_indefinite <chr>, rookie <chr>, veteran <chr>,
#> #   draft_eligible <chr>, jersey_number <chr>, team_name <chr>,
#> #   team_code <chr>, team_id <chr>, division <chr>, birthdate <chr>,
#> #   birthdate_year <chr>, hometown <chr>, homeprov <chr>, homecntry <chr>, …
…
