…
## Examples

``` r
 try(qmjhl_schedule()) 
#> ── QMJHL Schedule from HockeyTech ───────────────────────── fastRhockey 1.0.0 ──
#> ℹ Data updated: 2026-06-24 02:07:14 UTC
#> # A tibble: 10,000 × 12
#>    game_id game_date     game_status home_team home_team_id home_score away_team
#>    <chr>   <chr>         <chr>       <chr>     <chr>        <chr>      <chr>    
#>  1 5025    1969-10-05T0… Final       Drummond… 47           3          Cornwall…
#>  2 5089    1969-10-05T0… Final 1st … Verdun, … 50           5          St-Jérôm…
#>  3 5110    1969-10-05T0… Final 1st … Laval, S… 51           4          Québec, …
#>  4 5185    1969-10-05T0… Final       Sherbroo… 18           1          Sorel, É…
#>  5 5213    1969-10-05T0… Final       Shawinig… 13           11         Trois-Ri…
#>  6 5156    1969-10-06T0… Final       Laval, S… 51           5          Trois-Ri…
#>  7 5085    1969-10-07T0… Final       Verdun, … 50           11         Laval, S…
#>  8 5149    1969-10-07T0… Final 1st … St-Jérôm… 48           5          Sorel, É…
#>  9 5237    1969-10-07T0… Final       Trois-Ri… 4            3          Québec, …
#> 10 5053    1969-10-09T0… Final       Cornwall… 49           5          Verdun, …
#> # ℹ 9,990 more rows
#> # ℹ 5 more variables: away_team_id <chr>, away_score <chr>, venue <chr>,
#> #   season_id <chr>, game_type <chr>
```
