…
## Examples

``` r
 try(whl_teams()) 
#> ── WHL Teams from HockeyTech ────────────────────────────── fastRhockey 1.0.0 ──
#> ℹ Data updated: 2026-06-24 02:07:28 UTC
#> # A tibble: 24 × 7
#>    team_name       team_id team_code team_nickname team_label division team_logo
#>    <chr>           <chr>   <chr>     <chr>         <chr>      <chr>    <chr>    
#>  1 Brandon Wheat … 201     BDN       Wheat Kings   Brandon    1        https://…
#>  2 Calgary Hitmen  202     CGY       Hitmen        Calgary    3        https://…
#>  3 Edmonton Oil K… 228     EDM       Oil Kings     Edmonton   3        https://…
#>  4 Everett Silver… 226     EVT       Silvertips    Everett    6        https://…
#>  5 Kamloops Blaze… 203     KAM       Blazers       Kamloops   2        https://…
#>  6 Kelowna Rockets 204     KEL       Rockets       Kelowna    2        https://…
#>  7 Lethbridge Hur… 205     LET       Hurricanes    Lethbridge 3        https://…
#>  8 London Knights  280     LON       Knights       London     2        https://…
#>  9 Medicine Hat T… 206     MH        Tigers        Medicine … 3        https://…
#> 10 Moose Jaw Warr… 207     MJ        Warriors      Moose Jaw  1        https://…
#> # ℹ 14 more rows
```
